<?xml version="1.0" encoding="UTF-8"?>
<svg width="224px" height="227px" viewBox="0 0 224 227" version="1.1" xmlns="http://www.w3.org/2000/svg" xmlns:xlink="http://www.w3.org/1999/xlink">
    <!-- Generator: Sketch 60.1 (88133) - https://sketch.com -->
    <title>HYA_Leaf</title>
    <desc>Created with Sketch.</desc>
    <defs>
        <polygon id="path-1" points="0 0.742666667 224.554667 0.742666667 224.554667 256.827467 0 256.827467"></polygon>
        <polygon id="path-3" points="0 279.257333 224.554667 279.257333 224.554667 1.33333333 0 1.33333333"></polygon>
    </defs>
    <g id="Desktop" stroke="none" stroke-width="1" fill="none" fill-rule="evenodd">
        <g id="Homepage" transform="translate(-1081.000000, -1087.000000)">
            <g id="HYA_Leaf" transform="translate(1195.666667, 1200.000000) rotate(40.000000) translate(-1195.666667, -1200.000000) translate(1083.000000, 1060.000000)">
                <g id="Group-3" transform="translate(0.000000, 0.590667)">
                    <mask id="mask-2" fill="white">
                        <use xlink:href="#path-1"></use>
                    </mask>
                    <g id="Clip-2"></g>
                    <path d="M112.277333,22.7661333 C92.9226667,34.4701333 19.1693333,82.9394667 19.1693333,141.715467 C19.1693333,176.459467 34.6546667,203.055467 65.196,220.766133 C85.9533333,232.802133 107.164,236.691467 112.277333,237.490133 C117.390667,236.691467 138.601333,232.802133 159.358667,220.766133 C189.9,203.055467 205.385333,176.459467 205.385333,141.715467 C205.385333,82.9394667 131.636,34.4714667 112.277333,22.7661333 L112.277333,22.7661333 Z M112.277333,256.827467 L111.136,256.690133 C110.008,256.555467 83.216,253.199467 56.1626667,237.686133 C19.42,216.615467 0,183.430133 0,141.715467 C0,63.0248 103.284,5.65813333 107.68,3.25546667 L112.277333,0.742133333 L116.874667,3.25546667 C121.270667,5.65813333 224.554667,63.0248 224.554667,141.715467 C224.554667,183.430133 205.134667,216.615467 168.392,237.686133 C141.338667,253.199467 114.546667,256.555467 113.418667,256.690133 L112.277333,256.827467 Z" id="Fill-1" fill="#1A936F" mask="url(#mask-2)"></path>
                </g>
                <polygon id="Fill-4" fill="#1A936F" points="118.231733 223.587867 106.6144 211.967867 153.4944 165.0892 165.111733 176.7092"></polygon>
                <polygon id="Fill-6" fill="#1A936F" points="118.231733 146.068267 106.6144 134.450933 131.519733 109.5456 143.137067 121.162933"></polygon>
                <path d="M151.7728,94.4582667 C147.4528,94.4582667 143.9368,97.9742667 143.9368,102.2956 C143.9368,106.616933 147.4528,110.1316 151.7728,110.1316 C156.094133,110.1316 159.610133,106.616933 159.610133,102.2956 C159.610133,97.9742667 156.094133,94.4582667 151.7728,94.4582667 M151.7728,123.824933 C139.902133,123.824933 130.2448,114.166267 130.2448,102.2956 C130.2448,90.4249333 139.902133,80.7662667 151.7728,80.7662667 C163.643467,80.7662667 173.302133,90.4249333 173.302133,102.2956 C173.302133,114.166267 163.643467,123.824933 151.7728,123.824933" id="Fill-8" fill="#1A936F"></path>
                <path d="M170.369733,152.206933 C166.0484,152.206933 162.5324,155.722933 162.5324,160.042933 C162.5324,164.364267 166.0484,167.878933 170.369733,167.878933 C174.689733,167.878933 178.205733,164.364267 178.205733,160.042933 C178.205733,155.722933 174.689733,152.206933 170.369733,152.206933 M170.369733,181.572267 C158.499067,181.572267 148.8404,171.9136 148.8404,160.042933 C148.8404,148.172267 158.499067,138.514933 170.369733,138.514933 C182.2404,138.514933 191.897733,148.172267 191.897733,160.042933 C191.897733,171.9136 182.2404,181.572267 170.369733,181.572267" id="Fill-10" fill="#1A936F"></path>
                <polygon id="Fill-12" fill="#1A936F" points="106.6732 223.586533 59.7945333 176.707867 71.4118667 165.090533 118.290533 211.9692"></polygon>
                <polygon id="Fill-14" fill="#1A936F" points="106.6732 146.068267 81.7678667 121.162933 93.3852 109.5456 118.290533 134.450933"></polygon>
                <path d="M73.1328,94.4582667 C68.8101333,94.4582667 65.2954667,97.9742667 65.2954667,102.2956 C65.2954667,106.616933 68.8101333,110.1316 73.1328,110.1316 C77.4541333,110.1316 80.9688,106.616933 80.9688,102.2956 C80.9688,97.9742667 77.4541333,94.4582667 73.1328,94.4582667 M73.1328,123.824933 C61.2608,123.824933 51.6034667,114.166267 51.6034667,102.2956 C51.6034667,90.4249333 61.2608,80.7662667 73.1328,80.7662667 C85.0034667,80.7662667 94.6621333,90.4249333 94.6621333,102.2956 C94.6621333,114.166267 85.0034667,123.824933 73.1328,123.824933" id="Fill-16" fill="#1A936F"></path>
                <path d="M54.5370667,152.206933 C50.2157333,152.206933 46.6997333,155.722933 46.6997333,160.042933 C46.6997333,164.364267 50.2157333,167.878933 54.5370667,167.878933 C58.8584,167.878933 62.3730667,164.364267 62.3730667,160.042933 C62.3730667,155.722933 58.8584,152.206933 54.5370667,152.206933 M54.5370667,181.572267 C42.6650667,181.572267 33.0077333,171.9136 33.0077333,160.042933 C33.0077333,148.172267 42.6650667,138.514933 54.5370667,138.514933 C66.4077333,138.514933 76.0664,148.172267 76.0664,160.042933 C76.0664,171.9136 66.4077333,181.572267 54.5370667,181.572267" id="Fill-18" fill="#1A936F"></path>
                <mask id="mask-4" fill="white">
                    <use xlink:href="#path-3"></use>
                </mask>
                <g id="Clip-21"></g>
                <polygon id="Fill-20" fill="#1A936F" mask="url(#mask-4)" points="102.610667 279.257333 121.78 279.257333 121.78 59.4946667 102.610667 59.4946667"></polygon>
            </g>
        </g>
    </g>
</svg>